
3000|2098354325|1956_IPro|1|2013-05-25 13:42:18
3000|2098354322|1956_IPro|2|2013-05-25 13:42:19
3000|309810097|1956_IPro|6|2013-05-25 13:42:19
3000|2095594526|1956_IPro|7|2013-05-25 13:42:20
3000|600|1956_IPro|8|2013-05-25 13:42:20
3000|2098354325|1956_IPro|1|2013-05-25 13:43:44
3000|2095594526|1956_IPro|7|2013-05-25 13:43:46
3000|600|1956_IPro|8|2013-05-25 13:43:47
3000|2096997070|1956_IPro|10|2013-05-25 13:43:49
3000|2098465743|1956_IPro|11|2013-05-25 13:43:50
3000|2095953828|1956_IPro|12|2013-05-25 13:43:51
3000|2098354325|1956_IPro|1|2013-05-25 13:43:57
3000|2095594526|1956_IPro|7|2013-05-25 13:43:58
3000|600|1956_IPro|8|2013-05-25 13:43:59
3000|2096997070|1956_IPro|10|2013-05-25 13:43:59
3000|2098465743|1956_IPro|11|2013-05-25 13:44:00
3000|2095953828|1956_IPro|12|2013-05-25 13:44:01
3000|2098354325|1956_IPro|1|2013-05-25 13:44:04
3000|2095594526|1956_IPro|7|2013-05-25 13:44:05
3000|600|1956_IPro|8|2013-05-25 13:44:05
3000|2096997070|1956_IPro|10|2013-05-25 13:44:06
3000|2098465743|1956_IPro|11|2013-05-25 13:44:07
3000|2095953828|1956_IPro|12|2013-05-25 13:44:08
3000|2098354325|1956_IPro|1|2013-05-25 13:44:11
3000|2095594526|1956_IPro|7|2013-05-25 13:44:12
3000|600|1956_IPro|8|2013-05-25 13:44:12
3000|2096997070|1956_IPro|10|2013-05-25 13:44:13
3000|2098465743|1956_IPro|11|2013-05-25 13:44:13
3000|2095953828|1956_IPro|12|2013-05-25 13:44:15
3000|2098354325|1956_IPro|1|2013-05-25 13:44:18
3000|2095594526|1956_IPro|7|2013-05-25 13:44:18
3000|600|1956_IPro|8|2013-05-25 13:44:19
3000|2096997070|1956_IPro|10|2013-05-25 13:44:20
3000|2098465743|1956_IPro|11|2013-05-25 13:44:20
3000|2095953828|1956_IPro|12|2013-05-25 13:44:22
3000|2095594526|1956_IPro|7|2013-05-25 13:44:25
3000|600|1956_IPro|8|2013-05-25 13:44:25
3000|2096997070|1956_IPro|10|2013-05-25 13:44:26
3000|2098465743|1956_IPro|11|2013-05-25 13:44:27
3000|2095953828|1956_IPro|12|2013-05-25 13:44:27
3000|2095594526|1956_IPro|7|2013-05-25 13:44:30
3000|600|1956_IPro|8|2013-05-25 13:44:31
3000|2096997070|1956_IPro|10|2013-05-25 13:44:31
3000|2098465743|1956_IPro|11|2013-05-25 13:44:32
3000|2095953828|1956_IPro|12|2013-05-25 13:44:33
3000|2095594526|1956_IPro|7|2013-05-25 13:44:35
3000|600|1956_IPro|8|2013-05-25 13:44:36
3000|2096997070|1956_IPro|10|2013-05-25 13:44:37
3000|2098465743|1956_IPro|11|2013-05-25 13:44:38
3000|2095953828|1956_IPro|12|2013-05-25 13:44:38
3000|2095594526|1956_IPro|7|2013-05-25 13:44:41
3000|600|1956_IPro|8|2013-05-25 13:44:41
3000|2096997070|1956_IPro|10|2013-05-25 13:44:42
3000|2098465743|1956_IPro|11|2013-05-25 13:44:43
3000|2095953828|1956_IPro|12|2013-05-25 13:44:43
3000|2095594526|1956_IPro|7|2013-05-25 13:44:46
3000|600|1956_IPro|8|2013-05-25 13:44:47
3000|2096997070|1956_IPro|10|2013-05-25 13:44:47
3000|2098465743|1956_IPro|11|2013-05-25 13:44:48
3000|2095953828|1956_IPro|12|2013-05-25 13:44:49
3000|2095594526|1956_IPro|7|2013-05-25 13:44:51
3000|600|1956_IPro|8|2013-05-25 13:44:52
3000|2096997070|1956_IPro|10|2013-05-25 13:44:53
3000|2098465743|1956_IPro|11|2013-05-25 13:44:53
3000|2095953828|1956_IPro|12|2013-05-25 13:44:54
3000|2095594526|1956_IPro|7|2013-05-25 13:44:57
3000|600|1956_IPro|8|2013-05-25 13:44:57
3000|2096997070|1956_IPro|10|2013-05-25 13:44:58
3000|2098465743|1956_IPro|11|2013-05-25 13:44:59
3000|2095953828|1956_IPro|12|2013-05-25 13:44:59
3000|2095594526|1956_IPro|7|2013-05-25 13:45:02
3000|600|1956_IPro|8|2013-05-25 13:45:02
3000|2096997070|1956_IPro|10|2013-05-25 13:45:03
3000|2098465743|1956_IPro|11|2013-05-25 13:45:04
3000|2095953828|1956_IPro|12|2013-05-25 13:45:04
3000|2095594526|1956_IPro|7|2013-05-25 13:45:07
3000|600|1956_IPro|8|2013-05-25 13:45:07